…
``` r
## made sure new column was made
```

## number 5

``` r
grouped_flights <- group_by(flights, carrier, tailnum)     
### grouped the flights
summarise(grouped_flights, n()) 
```

    ## `summarise()` regrouping output by 'carrier' (override with `.groups` argument)

    ## # A tibble: 4,067 x 3
    ## # Groups:   carrier [16]
    ##    carrier tailnum `n()`
    ##    <chr>   <chr>   <int>
    ##  1 9E      N146PQ      8
    ##  2 9E      N153PQ      5
    ##  3 9E      N161PQ      3
    ##  4 9E      N162PQ      2
    ##  5 9E      N170PQ      7
    ##  6 9E      N176PQ      7
    ##  7 9E      N181PQ      4
    ##  8 9E      N187PQ      5
    ##  9 9E      N197PQ      2
    ## 10 9E      N200PQ      7
    ## # … with 4,057 more rows
